Student Grade Data analysis
…
## Waiting for profiling to be done...

##                  2.5 %      97.5 %
## (Intercept)  9.3738835 18.04085478
## failures    -1.7404378 -0.75693321
## age         -0.3494987  0.17807403
## absences    -0.1057325 -0.02620792

Poisson model

studentdata1$school<- as.factor(studentdata1$school)
as_tibble(studentdata1)

## # A tibble: 357 x 35
##    school sex     age address famsize Pstatus  Medu  Fedu Mjob     Fjob   reason
##    <fct>  <chr> <int> <chr>   <chr>   <chr>   <int> <int> <chr>    <chr>  <chr> 
##  1 GP     F        18 U       GT3     A           4     4 at_home  teach~ course
##  2 GP     F        17 U       GT3     T           1     1 at_home  other  course
##  3 GP     F        15 U       LE3     T           1     1 at_home  other  other 
##  4 GP     F        15 U       GT3     T           4     2 health   servi~ home  
##  5 GP     F        16 U       GT3     T           3     3 other    other  home  
##  6 GP     M        16 U       LE3     T           4     3 services other  reput~
##  7 GP     M        16 U       LE3     T           2     2 other    other  home  
##  8 GP     F        17 U       GT3     A           4     4 other    teach~ home  
##  9 GP     M        15 U       LE3     A           3     2 services other  home  
## 10 GP     M        15 U       GT3     T           3     4 other    other  home  
## # ... with 347 more rows, and 24 more variables: guardian <chr>,
## #   traveltime <int>, studytime <int>, failures <int>, schoolsup <chr>,
## #   famsup <chr>, paid <chr>, activities <chr>, nursery <chr>, higher <chr>,
## #   internet <chr>, romantic <chr>, famrel <int>, freetime <int>, goout <int>,
## #   Dalc <int>, Walc <int>, health <int>, absences <int>, G1 <int>, G2 <int>,
## #   G3 <int>, avgScore <dbl>, Tscore <int>
…
